…
1.6

5.80e+00

6.50e+00

7.10e+00

9.30e+00

▁▁▆▇▁

distinct(select(movies, title, year, genre, director))

## # A tibble: 2,907 x 4
##    title                                      year genre     director         
##    <chr>                                     <dbl> <chr>     <chr>            
##  1 Avatar                                     2009 Action    James Cameron    
##  2 Titanic                                    1997 Drama     James Cameron    
##  3 Jurassic World                             2015 Action    Colin Trevorrow  
##  4 The Avengers                               2012 Action    Joss Whedon      
##  5 The Dark Knight                            2008 Action    Christopher Nolan
##  6 Star Wars: Episode I - The Phantom Menace  1999 Action    George Lucas     
##  7 Star Wars: Episode IV - A New Hope         1977 Action    George Lucas     
##  8 Avengers: Age of Ultron                    2015 Action    Joss Whedon      
##  9 The Dark Knight Rises                      2012 Action    Christopher Nolan
## 10 Shrek 2                                    2004 Adventure Andrew Adamson   
## # ... with 2,897 more rows

movies[duplicated(movies$title),] %>% arrange(title)

## # A tibble: 54 x 11
##    title    genre  director  year duration  gross budget cast_facebook_l~  votes
##    <chr>    <chr>  <chr>    <dbl>    <dbl>  <dbl>  <dbl>            <dbl>  <dbl>
##  1 A Night~ Horror Wes Cra~  1984      101 2.65e7 1.8 e6            42918 149293
##  2 Across ~ Drama  Julie T~  2007      133 2.43e7 4.5 e7             5405  91863
##  3 Alice i~ Adven~ Tim Bur~  2010      108 3.34e8 2   e8            79957 306336
##  4 Aloha    Comedy Cameron~  2015      105 2.10e7 3.7 e7            44037  39782
##  5 Around ~ Action Frank C~  2004      120 2.40e7 1.1 e8             3175  68722
##  6 Brothers Drama  Jim She~  2009      105 2.85e7 2.6 e7            39473  88037
##  7 Carrie   Drama  Kimberl~  2013      100 3.53e7 3   e7            20051 108248
##  8 Chasing~ Comedy Andy Ca~  2004      101 1.22e7 2.3 e7              829  30092
##  9 Cindere~ Drama  Kenneth~  2015      105 2.01e8 9.5 e7             4671 103749
## 10 Clash o~ Action Louis L~  2010      106 1.63e8 1.25e8            18003 229687
## # ... with 44 more rows, and 2 more variables: reviews <dbl>, rating <dbl>
…
Produce a table that shows the top 15 directors who have created the highest gross revenue in the box office. Don’t just show the total gross amount, but also the mean, median, and standard deviation per director.

movies %>%
  group_by(director) %>%
  summarise(
    director = director,
    revenue = gross,
    mean_revenue = mean(revenue),
    median_revenue = median(revenue),
    std_revenue = StdDev(revenue)
  ) %>%
  slice_max(order_by = revenue, n=15)

## # A tibble: 2,947 x 5
## # Groups:   director [1,366]
##    director          revenue mean_revenue median_revenue std_revenue[,1]
##    <chr>               <dbl>        <dbl>          <dbl>           <dbl>
##  1 Aaron Schneider   9176553     9176553         9176553             NA 
##  2 Aaron Seltzer    48546578    48546578        48546578             NA 
##  3 Abel Ferrara      1227324     1227324         1227324             NA 
##  4 Adam Goldberg        2580        2580            2580             NA 
##  5 Adam Marcus      15935068    15935068        15935068             NA 
##  6 Adam McKay      148213377    87408282.       92302851       49900084.
##  7 Adam McKay      119219978    87408282.       92302851       49900084.
##  8 Adam McKay      100468793    87408282.       92302851       49900084.
##  9 Adam McKay       84136909    87408282.       92302851       49900084.
## 10 Adam McKay       70235322    87408282.       92302851       49900084.
## # ... with 2,937 more rows
…
